<?xml version="1.0" encoding="utf-8"?>
<!DOCTYPE eagle SYSTEM "eagle.dtd">
<eagle version="9.6.2">
<drawing>
<settings>
<setting alwaysvectorfont="no"/>
<setting verticaltext="up"/>
</settings>
<grid distance="0.1" unitdist="inch" unit="inch" style="lines" multiple="1" display="yes" altdistance="0.01" altunitdist="inch" altunit="inch"/>
<layers>
<layer number="1" name="Top" color="4" fill="1" visible="yes" active="yes"/>
<layer number="2" name="Route2" color="16" fill="1" visible="no" active="yes"/>
<layer number="3" name="Route3" color="17" fill="1" visible="no" active="yes"/>
<layer number="4" name="Route4" color="18" fill="1" visible="no" active="yes"/>
<layer number="5" name="Route5" color="19" fill="1" visible="no" active="yes"/>
<layer number="6" name="Route6" color="25" fill="1" visible="no" active="yes"/>
<layer number="7" name="Route7" color="26" fill="1" visible="no" active="yes"/>
<layer number="8" name="Route8" color="27" fill="1" visible="no" active="yes"/>
<layer number="9" name="Route9" color="28" fill="1" visible="no" active="yes"/>
<layer number="10" name="Route10" color="29" fill="1" visible="no" active="yes"/>
<layer number="11" name="Route11" color="30" fill="1" visible="no" active="yes"/>
<layer number="12" name="Route12" color="20" fill="1" visible="no" active="yes"/>
<layer number="13" name="Route13" color="21" fill="1" visible="no" active="yes"/>
<layer number="14" name="Route14" color="22" fill="1" visible="no" active="yes"/>
<layer number="15" name="Route15" color="23" fill="1" visible="no" active="yes"/>
<layer number="16" name="Bottom" color="1" fill="1" visible="yes" active="yes"/>
<layer number="17" name="Pads" color="2" fill="1" visible="yes" active="yes"/>
<layer number="18" name="Vias" color="2" fill="1" visible="yes" active="yes"/>
<layer number="19" name="Unrouted" color="6" fill="1" visible="yes" active="yes"/>
<layer number="20" name="Dimension" color="24" fill="1" visible="yes" active="yes"/>
<layer number="21" name="tPlace" color="7" fill="1" visible="yes" active="yes"/>
<layer number="22" name="bPlace" color="7" fill="1" visible="yes" active="yes"/>
<layer number="23" name="tOrigins" color="15" fill="1" visible="yes" active="yes"/>
<layer number="24" name="bOrigins" color="15" fill="1" visible="yes" active="yes"/>
<layer number="25" name="tNames" color="7" fill="1" visible="yes" active="yes"/>
<layer number="26" name="bNames" color="7" fill="1" visible="yes" active="yes"/>
<layer number="27" name="tValues" color="7" fill="1" visible="yes" active="yes"/>
<layer number="28" name="bValues" color="7" fill="1" visible="yes" active="yes"/>
<layer number="29" name="tStop" color="7" fill="3" visible="no" active="yes"/>
<layer number="30" name="bStop" color="7" fill="6" visible="no" active="yes"/>
<layer number="31" name="tCream" color="7" fill="4" visible="no" active="yes"/>
<layer number="32" name="bCream" color="7" fill="5" visible="no" active="yes"/>
<layer number="33" name="tFinish" color="6" fill="3" visible="no" active="yes"/>
<layer number="34" name="bFinish" color="6" fill="6" visible="no" active="yes"/>
<layer number="35" name="tGlue" color="7" fill="4" visible="no" active="yes"/>
<layer number="36" name="bGlue" color="7" fill="5" visible="no" active="yes"/>
<layer number="37" name="tTest" color="7" fill="1" visible="no" active="yes"/>
<layer number="38" name="bTest" color="7" fill="1" visible="no" active="yes"/>
<layer number="39" name="tKeepout" color="4" fill="11" visible="yes" active="yes"/>
<layer number="40" name="bKeepout" color="1" fill="11" visible="yes" active="yes"/>
<layer number="41" name="tRestrict" color="4" fill="10" visible="yes" active="yes"/>
<layer number="42" name="bRestrict" color="1" fill="10" visible="yes" active="yes"/>
<layer number="43" name="vRestrict" color="2" fill="10" visible="yes" active="yes"/>
<layer number="44" name="Drills" color="7" fill="1" visible="no" active="yes"/>
<layer number="45" name="Holes" color="7" fill="1" visible="no" active="yes"/>
<layer number="46" name="Milling" color="3" fill="1" visible="no" active="yes"/>
<layer number="47" name="Measures" color="7" fill="1" visible="no" active="yes"/>
<layer number="48" name="Document" color="7" fill="1" visible="yes" active="yes"/>
<layer number="49" name="Reference" color="7" fill="1" visible="yes" active="yes"/>
<layer number="51" name="tDocu" color="7" fill="1" visible="yes" active="yes"/>
<layer number="52" name="bDocu" color="7" fill="1" visible="yes" active="yes"/>
<layer number="88" name="SimResults" color="9" fill="1" visible="yes" active="yes"/>
<layer number="89" name="SimProbes" color="9" fill="1" visible="yes" active="yes"/>
<layer number="90" name="Modules" color="5" fill="1" visible="yes" active="yes"/>
<layer number="91" name="Nets" color="2" fill="1" visible="yes" active="yes"/>
<layer number="92" name="Busses" color="1" fill="1" visible="yes" active="yes"/>
<layer number="93" name="Pins" color="2" fill="1" visible="yes" active="yes"/>
<layer number="94" name="Symbols" color="4" fill="1" visible="yes" active="yes"/>
<layer number="95" name="Names" color="7" fill="1" visible="yes" active="yes"/>
<layer number="96" name="Values" color="7" fill="1" visible="yes" active="yes"/>
<layer number="97" name="Info" color="7" fill="1" visible="yes" active="yes"/>
<layer number="98" name="Guide" color="6" fill="1" visible="yes" active="yes"/>
</layers>
<library>
<packages>
<package name="KXOB25-05X3F-TR">
<smd name="+" x="-10" y="0" dx="2.159" dy="8.128" layer="1" rot="R180"/>
<smd name="-" x="11" y="0" dx="2.159" dy="8.128" layer="1" rot="R180"/>
<wire x1="-8.46" y1="4" x2="9.46" y2="4" width="0.127" layer="21"/>
<wire x1="9.46" y1="-4" x2="-8.46" y2="-4" width="0.127" layer="21"/>
<circle x="0" y="0" radius="1.4142125" width="0.254" layer="25"/>
<wire x1="0" y1="2" x2="0" y2="3" width="0.127" layer="25"/>
<wire x1="0" y1="-2" x2="0" y2="-3" width="0.127" layer="25"/>
<wire x1="-1.5" y1="-1.5" x2="-2" y2="-2" width="0.127" layer="25"/>
<wire x1="-2" y1="0" x2="-3" y2="0" width="0.127" layer="25"/>
<wire x1="1.5" y1="-1.5" x2="2" y2="-2" width="0.127" layer="25"/>
<wire x1="2" y1="0" x2="3" y2="0" width="0.127" layer="25"/>
<wire x1="-1.5" y1="1.5" x2="-2" y2="2" width="0.127" layer="25"/>
<wire x1="1.5" y1="1.5" x2="2" y2="2" width="0.127" layer="25"/>
<wire x1="-7" y1="0.5" x2="-7" y2="-0.5" width="0.127" layer="25"/>
<wire x1="-6.5" y1="0" x2="-7.5" y2="0" width="0.127" layer="25"/>
</package>
<package name="SC70-6L" urn="urn:adsk.eagle:footprint:8084186/1">
<description>&lt;b&gt;SC-70 Package&lt;/b&gt;</description>
<wire x1="-1.1" y1="0.5" x2="1.1" y2="0.5" width="0.2032" layer="51"/>
<wire x1="1.1" y1="0.5" x2="1.1" y2="-0.5" width="0.2032" layer="21"/>
<wire x1="1.1" y1="-0.5" x2="-1.1" y2="-0.5" width="0.2032" layer="51"/>
<wire x1="-1.1" y1="-0.5" x2="-1.1" y2="0.5" width="0.2032" layer="21"/>
<circle x="-0.65" y="-0.2" radius="0.15" width="0" layer="21"/>
<smd name="1" x="-0.65" y="-0.85" dx="0.35" dy="0.8" layer="1"/>
<smd name="2" x="0" y="-0.85" dx="0.35" dy="0.8" layer="1"/>
<smd name="3" x="0.65" y="-0.85" dx="0.35" dy="0.8" layer="1"/>
<smd name="4" x="0.65" y="0.85" dx="0.35" dy="0.8" layer="1"/>
<smd name="5" x="0" y="0.85" dx="0.35" dy="0.8" layer="1"/>
<smd name="6" x="-0.65" y="0.85" dx="0.35" dy="0.8" layer="1"/>
<text x="-1.2" y="1.35" size="1.016" layer="25">&gt;NAME</text>
<text x="-1.2" y="-2.35" size="1.016" layer="27">&gt;VALUE</text>
<rectangle x1="-0.8" y1="-1.1" x2="-0.5" y2="-0.6" layer="51"/>
<rectangle x1="-0.15" y1="-1.1" x2="0.15" y2="-0.6" layer="51"/>
<rectangle x1="0.5" y1="-1.1" x2="0.8" y2="-0.6" layer="51"/>
<rectangle x1="0.5" y1="0.6" x2="0.8" y2="1.1" layer="51"/>
<rectangle x1="-0.15" y1="0.6" x2="0.15" y2="1.1" layer="51"/>
<rectangle x1="-0.8" y1="0.6" x2="-0.5" y2="1.1" layer="51"/>
</package>
<package name="SMS-002" urn="urn:adsk.eagle:footprint:26406/1">
<description>&lt;b&gt;DIP SWITCH&lt;/b&gt;</description>
<wire x1="-3.175" y1="-3.2004" x2="3.175" y2="-3.2004" width="0.1524" layer="21"/>
<wire x1="3.175" y1="3.2004" x2="3.175" y2="-3.2004" width="0.1524" layer="21"/>
<wire x1="3.175" y1="3.2004" x2="-3.175" y2="3.2004" width="0.1524" layer="21"/>
<wire x1="-3.175" y1="-3.2004" x2="-3.175" y2="3.2004" width="0.1524" layer="21"/>
<wire x1="-2.032" y1="2.032" x2="-0.508" y2="2.032" width="0.1524" layer="21"/>
<wire x1="-0.508" y1="-2.032" x2="-2.032" y2="-2.032" width="0.1524" layer="21"/>
<wire x1="-0.508" y1="2.032" x2="-0.508" y2="-2.032" width="0.1524" layer="21"/>
<wire x1="-2.032" y1="-2.032" x2="-2.032" y2="2.032" width="0.1524" layer="21"/>
<wire x1="0.508" y1="2.032" x2="2.032" y2="2.032" width="0.1524" layer="21"/>
<wire x1="2.032" y1="-2.032" x2="0.508" y2="-2.032" width="0.1524" layer="21"/>
<wire x1="2.032" y1="2.032" x2="2.032" y2="-2.032" width="0.1524" layer="21"/>
<wire x1="0.508" y1="-2.032" x2="0.508" y2="2.032" width="0.1524" layer="21"/>
<smd name="3" x="1.27" y="4.4958" dx="1.0922" dy="2.0066" layer="1"/>
<smd name="2" x="1.27" y="-4.4958" dx="1.0922" dy="2.0066" layer="1"/>
<smd name="1" x="-1.27" y="-4.4958" dx="1.0922" dy="2.0066" layer="1"/>
<smd name="4" x="-1.27" y="4.4958" dx="1.0922" dy="2.0066" layer="1"/>
<text x="-1.397" y="-1.27" size="1.016" layer="21">1</text>
<text x="-3.556" y="-3.175" size="1.27" layer="25" ratio="10" rot="R90">&gt;NAME</text>
<text x="4.826" y="-3.175" size="1.27" layer="27" ratio="10" rot="R90">&gt;VALUE</text>
<rectangle x1="-2.032" y1="0.508" x2="-0.508" y2="2.032" layer="21"/>
<rectangle x1="0.508" y1="0.508" x2="2.032" y2="2.032" layer="21"/>
<rectangle x1="-2.0066" y1="-4.1148" x2="-0.508" y2="-3.2004" layer="51"/>
<rectangle x1="-1.5748" y1="-5.1816" x2="-0.9652" y2="-4.1148" layer="51"/>
<rectangle x1="0.5334" y1="-4.1148" x2="2.032" y2="-3.2004" layer="51"/>
<rectangle x1="0.9652" y1="-5.1816" x2="1.5748" y2="-4.1148" layer="51"/>
<rectangle x1="-2.032" y1="3.2004" x2="-0.5334" y2="4.1148" layer="51"/>
<rectangle x1="-1.5748" y1="4.1148" x2="-0.9652" y2="5.1816" layer="51"/>
<rectangle x1="0.508" y1="3.2004" x2="2.0066" y2="4.1148" layer="51"/>
<rectangle x1="0.9652" y1="4.1148" x2="1.5748" y2="5.1816" layer="51"/>
</package>
</packages>
<packages3d>
<package3d name="SMS-002" urn="urn:adsk.eagle:package:26469/1" type="box">
<description>DIP SWITCH</description>
<packageinstances>
<packageinstance name="SMS-002"/>
</packageinstances>
</package3d>
</packages3d>
<symbols>
<symbol name="SOLARCELL">
<pin name="+" x="0" y="8.89" length="middle" direction="pwr" rot="R270"/>
<pin name="-" x="0" y="-8.89" length="middle" direction="pwr" rot="R90"/>
<wire x1="0" y1="-3.81" x2="0" y2="-1.016" width="0.254" layer="94"/>
<wire x1="0" y1="-1.016" x2="-2.54" y2="-1.016" width="0.254" layer="94"/>
<wire x1="0" y1="-1.016" x2="2.794" y2="-1.016" width="0.254" layer="94"/>
<wire x1="0" y1="3.81" x2="0" y2="1.016" width="0.254" layer="94"/>
<wire x1="0" y1="1.016" x2="-3.81" y2="1.016" width="0.254" layer="94"/>
<wire x1="0" y1="1.016" x2="3.81" y2="1.016" width="0.254" layer="94"/>
<circle x="0" y="0" radius="5.08" width="0.254" layer="94"/>
<wire x1="8.636" y1="10.668" x2="5.334" y2="7.366" width="0.254" layer="94"/>
<wire x1="5.334" y1="7.366" x2="5.334" y2="8.382" width="0.254" layer="94"/>
<wire x1="5.334" y1="7.366" x2="6.35" y2="7.366" width="0.254" layer="94"/>
<wire x1="10.922" y1="8.636" x2="7.62" y2="5.334" width="0.254" layer="94"/>
<wire x1="7.62" y1="5.334" x2="7.62" y2="6.35" width="0.254" layer="94"/>
<wire x1="7.62" y1="5.334" x2="8.636" y2="5.334" width="0.254" layer="94"/>
<wire x1="-7.874" y1="6.858" x2="-4.572" y2="6.858" width="0.254" layer="94"/>
<wire x1="-6.096" y1="8.636" x2="-6.096" y2="5.334" width="0.254" layer="94"/>
<wire x1="-6.858" y1="-6.858" x2="-4.318" y2="-6.858" width="0.254" layer="94"/>
</symbol>
<symbol name="DIP02">
<wire x1="3.048" y1="0" x2="2.032" y2="0" width="0.1524" layer="94"/>
<wire x1="2.032" y1="2.54" x2="3.048" y2="2.54" width="0.1524" layer="94"/>
<wire x1="3.048" y1="2.54" x2="3.048" y2="0" width="0.1524" layer="94"/>
<wire x1="2.032" y1="0" x2="2.032" y2="2.54" width="0.1524" layer="94"/>
<wire x1="0.508" y1="0" x2="-0.508" y2="0" width="0.1524" layer="94"/>
<wire x1="-0.508" y1="2.54" x2="0.508" y2="2.54" width="0.1524" layer="94"/>
<wire x1="0.508" y1="2.54" x2="0.508" y2="0" width="0.1524" layer="94"/>
<wire x1="-0.508" y1="0" x2="-0.508" y2="2.54" width="0.1524" layer="94"/>
<wire x1="4.445" y1="5.08" x2="-1.905" y2="5.08" width="0.4064" layer="94"/>
<wire x1="-1.905" y1="5.08" x2="-1.905" y2="-2.54" width="0.4064" layer="94"/>
<wire x1="-1.905" y1="-2.54" x2="4.445" y2="-2.54" width="0.4064" layer="94"/>
<wire x1="4.445" y1="-2.54" x2="4.445" y2="5.08" width="0.4064" layer="94"/>
<text x="-2.54" y="-2.54" size="1.778" layer="95" rot="R90">&gt;NAME</text>
<text x="6.985" y="-2.54" size="1.778" layer="96" rot="R90">&gt;VALUE</text>
<text x="-0.635" y="3.175" size="0.9906" layer="94" ratio="14">ON</text>
<text x="-0.254" y="-1.651" size="0.9906" layer="94" ratio="14">1</text>
<text x="2.032" y="-1.651" size="0.9906" layer="94" ratio="14">2</text>
<rectangle x1="-0.254" y1="0.254" x2="0.254" y2="1.27" layer="94"/>
<rectangle x1="2.286" y1="0.254" x2="2.794" y2="1.27" layer="94"/>
<pin name="3" x="2.54" y="7.62" visible="pad" length="short" direction="pas" rot="R270"/>
<pin name="4" x="0" y="7.62" visible="pad" length="short" direction="pas" rot="R270"/>
<pin name="1" x="0" y="-5.08" visible="pad" length="short" direction="pas" rot="R90"/>
<pin name="2" x="2.54" y="-5.08" visible="pad" length="short" direction="pas" rot="R90"/>
</symbol>
<symbol name="NCSZ5X-SC70-6L">
<pin name="I1" x="-12.7" y="7.62" length="middle" direction="in"/>
<pin name="GND" x="-12.7" y="0" length="middle" direction="pwr"/>
<pin name="I0" x="-12.7" y="-7.62" length="middle" direction="in"/>
<pin name="Y" x="12.7" y="-7.62" length="middle" direction="out" rot="R180"/>
<pin name="VCC" x="12.7" y="0" length="middle" direction="pwr" rot="R180"/>
<pin name="I2" x="12.7" y="7.62" length="middle" direction="in" rot="R180"/>
<wire x1="-7.62" y1="10.16" x2="7.62" y2="10.16" width="0.254" layer="94"/>
<wire x1="7.62" y1="10.16" x2="7.62" y2="-10.16" width="0.254" layer="94"/>
<wire x1="7.62" y1="-10.16" x2="-7.62" y2="-10.16" width="0.254" layer="94"/>
<wire x1="-7.62" y1="10.16" x2="-7.62" y2="-10.16" width="0.254" layer="94"/>
<text x="-7.62" y="-12.7" size="1.778" layer="95">NC7SZ5X</text>
<text x="-7.62" y="10.16" size="1.778" layer="96">&gt;VALUE</text>
</symbol>
</symbols>
<devicesets>
<deviceset name="KXOB25-05X3F-TR">
<gates>
<gate name="G$1" symbol="SOLARCELL" x="10.16" y="10.16"/>
</gates>
<devices>
<device name="" package="KXOB25-05X3F-TR">
<connects>
<connect gate="G$1" pin="+" pad="+"/>
<connect gate="G$1" pin="-" pad="-"/>
</connects>
<technologies>
<technology name=""/>
</technologies>
</device>
</devices>
</deviceset>
<deviceset name="NC7SZ57">
<gates>
<gate name="G$1" symbol="NCSZ5X-SC70-6L" x="0" y="2.54"/>
</gates>
<devices>
<device name="" package="SC70-6L">
<connects>
<connect gate="G$1" pin="GND" pad="2"/>
<connect gate="G$1" pin="I0" pad="3"/>
<connect gate="G$1" pin="I1" pad="1"/>
<connect gate="G$1" pin="I2" pad="6"/>
<connect gate="G$1" pin="VCC" pad="5"/>
<connect gate="G$1" pin="Y" pad="4"/>
</connects>
<technologies>
<technology name=""/>
</technologies>
</device>
</devices>
</deviceset>
<deviceset name="SWS002" prefix="S">
<description>&lt;b&gt;SMD Dip Switch 2 pol.&lt;/b&gt;</description>
<gates>
<gate name="G$1" symbol="DIP02" x="0" y="0"/>
</gates>
<devices>
<device name="" package="SMS-002">
<connects>
<connect gate="G$1" pin="1" pad="1"/>
<connect gate="G$1" pin="2" pad="2"/>
<connect gate="G$1" pin="3" pad="3"/>
<connect gate="G$1" pin="4" pad="4"/>
</connects>
<package3dinstances>
<package3dinstance package3d_urn="urn:adsk.eagle:package:26469/1"/>
</package3dinstances>
<technologies>
<technology name="">
<attribute name="POPULARITY" value="3" constant="no"/>
</technology>
</technologies>
</device>
</devices>
</deviceset>
<deviceset name="NC7SZ58">
<gates>
<gate name="G$1" symbol="NCSZ5X-SC70-6L" x="0" y="2.54"/>
</gates>
<devices>
<device name="" package="SC70-6L">
<connects>
<connect gate="G$1" pin="GND" pad="2"/>
<connect gate="G$1" pin="I0" pad="3"/>
<connect gate="G$1" pin="I1" pad="1"/>
<connect gate="G$1" pin="I2" pad="6"/>
<connect gate="G$1" pin="VCC" pad="5"/>
<connect gate="G$1" pin="Y" pad="4"/>
</connects>
<technologies>
<technology name=""/>
</technologies>
</device>
</devices>
</deviceset>
</devicesets>
</library>
</drawing>
<compatibility>
<note version="8.3" severity="warning">
Since Version 8.3, EAGLE supports URNs for individual library
assets (packages, symbols, and devices). The URNs of those assets
will not be understood (or retained) with this version.
</note>
<note version="8.3" severity="warning">
Since Version 8.3, EAGLE supports the association of 3D packages
with devices in libraries, schematics, and board files. Those 3D
packages will not be understood (or retained) with this version.
</note>
</compatibility>
</eagle>
